digraph G {
    edge [label=0];
    graph [ranksep=0];
    node [shape=record,fontsize=60];
    edge [fontsize=60];
    //rankdir = LR;
    K [label="huit"];
    W [label="quatre"];
    O [label="l'entend"];
    C [label="l'oiseau"];
    L [label="joue"];
    T [label="moi"];
    I [label="et"];
    G [label="deux"];
    N [label="l'enfant"];
    J [label="font"];
    M [label="l'appelle"];
    F [label="descend"];
    H [label="dit"];
    FH [shape=point];
    JMFH [shape=point];
    R [label="mais"];
    U [label="oiseau"];
    RU [shape=point];
    Q [label="lyre"];
    S [label="maitre"];
    QS [shape=point];
    RUQS [shape=point];
    JMFHRUQS [shape=point];
    _2 [label="voila"];
    A [label="alors"];
    "2A" [shape=point];
    _1 [label="sauve"];
    _3 [label="voit"];
    _13 [shape=point];
    "2A13" [shape=point];
    E [label="dans"];
    D [label="ciel"];
    ED [shape=point];
    B [label="avec"];
    EDB [shape=point];
    "2A13EDB" [shape=point];
    P [label="le"];
    Z [label="seize"];
    X [label="qui"];
    V [label="passe"];
    Y [label="repetez"];
    VY [shape=point];
    59 -> 26 -> 12 -> K;
    14 -> 7 -> OC;
    OC -> O;
    OC -> C [label=1];
    4 -> L;
    33 -> 16 -> 8 -> G;
    JMFHRUQS -> JMFH -> 2 -> J;
    FH -> F;
    RUQS -> RU -> R;
    QS -> Q;
    17 -> "2A13EDB" -> "2A13" -> "2A" -> _2;
    _13 -> _1;
    EDB -> ED -> E;
    9 -> P;
    5 -> Z;
    3 -> X;
    VY -> V;12 -> W [label=1];
    7 -> 4 -> T [label=1];
    26 -> 14 -> I [label=1];
    8 -> N [label=1];
    2 -> M [label=1];
    JMFH -> FH -> H [label=1];
    RU -> U [label=1];
    16 -> JMFHRUQS -> RUQS -> QS -> S [label=1];
    "2A" -> A [label=1];
    "2A13" -> _13 -> _3 [label=1];
    ED -> D [label=1];
    "2A13EDB" -> EDB -> B [label=1];
    59 -> 33 -> 17 -> 9 -> 5 -> 3 -> VY -> Y [label=1];
    59 [shape=circle,label=""];
    12 [shape=point];
    14 [shape=point];
    7 [shape=point];
    4 [shape=point];
    2 [shape=point];
    33 [shape=point];
    16 [shape=point];
    8 [shape=point];
    17 [shape=point];
    9 [shape=point];
    5 [shape=point];
    3 [shape=point];
    OC [shape=point];
    26 [shape=point];
}
