<?xml version="1.0" encoding="utf-8"?>
<!-- Generator: Adobe Illustrator 16.0.4, SVG Export Plug-In . SVG Version: 6.00 Build 0)  -->
<!DOCTYPE svg PUBLIC "-//W3C//DTD SVG 1.1//EN" "http://www.w3.org/Graphics/SVG/1.1/DTD/svg11.dtd" [
	<!ENTITY ns_extend "http://ns.adobe.com/Extensibility/1.0/">
	<!ENTITY ns_ai "http://ns.adobe.com/AdobeIllustrator/10.0/">
	<!ENTITY ns_graphs "http://ns.adobe.com/Graphs/1.0/">
	<!ENTITY ns_vars "http://ns.adobe.com/Variables/1.0/">
	<!ENTITY ns_imrep "http://ns.adobe.com/ImageReplacement/1.0/">
	<!ENTITY ns_custom "http://ns.adobe.com/GenericCustomNamespace/1.0/">
	<!ENTITY ns_adobe_xpath "http://ns.adobe.com/XPath/1.0/">
]>
<svg version="1.1" xmlns:x="&ns_extend;" xmlns:i="&ns_ai;" xmlns:graph="&ns_graphs;"
	 xmlns="http://www.w3.org/2000/svg" xmlns:xlink="http://www.w3.org/1999/xlink" x="0px" y="0px" width="179.865px"
	 height="170.833px" viewBox="0 0 179.865 170.833" enable-background="new 0 0 179.865 170.833" xml:space="preserve">
<metadata>
</metadata>
<g id="Calque_1">
</g>
<g id="FOND_1_">
	<g id="modèle-fond" display="none">
	</g>
	<g id="Fond-couleur">
	</g>
	<g id="Fond-rayures-1" display="none">
	</g>
	<g id="Fond-rayures-serree" display="none">
	</g>
	<g id="fond_vert_suavgearde" display="none">
	</g>
</g>
<g id="TITRES">
</g>
<g id="SLIDE_CHRONO">
	<g id="fond-vert-localisation">
	</g>
	<g id="contours-etats">
	</g>
	<g id="sauvegarde-contour" display="none">
	</g>
	<g id="Typo">
	</g>
	<g id="Fond-mayotte-portfolio1" display="none">
	</g>
	<g id="contour-guyane">
	</g>
	<g id="craie">
	</g>
	<g id="ocean_et_mer">
	</g>
</g>
<g id="SLIDE_00">
	<g id="Calque_65">
	</g>
</g>
<g id="SLIDE_TRANSPORTS">
	<g id="cote_2_" display="none">
	</g>
	<g id="foret_et_densite">
	</g>
	<g id="route_departementale" display="none">
	</g>
	<g id="carte_autres_transports" display="none">
	</g>
	<g id="fond-route_principales_et_secondaires" display="none">
	</g>
	<g id="fond_route_pricnipales_2" display="none">
	</g>
	<g id="carte-transport" display="none">
	</g>
	<g id="aeroport_international">
	</g>
	<g id="Grand_port_maritime">
	</g>
	<g id="port_fluvial_avec_bac">
	</g>
	<g id="communes-fond_1_" display="none">
	</g>
	<g id="legende_2_">
	</g>
	<g id="fond_2_">
	</g>
	<g id="guyane_2_">
	</g>
	<g id="fleuve_2_">
	</g>
	<g id="routes-principales_et_nationales">
	</g>
	<g id="routes-regionales">
	</g>
	<g id="piste_de_desenclavement">
	</g>
	<g id="limites-pays-voisins">
	</g>
	<g id="noms-pays-voisins_1_">
	</g>
	<g id="liaison_aerienne">
	</g>
	<g id="villes_2_">
	</g>
	<g id="texte-fleuve">
	</g>
</g>
<g id="SLIDE_SECURITE">
	<g id="Modèle" display="none">
	</g>
	<g id="texte_2_">
	</g>
	<g id="graphique_type_de_délinquance_et_cocaine">
	</g>
</g>
<g id="SLIDE_EDUCATION">
	<g id="texte_3_">
	</g>
	<g id="graphique">
	</g>
	<g id="tx_non_scolarisation">
		<g id="taux">
		</g>
		<g id="fond_qgis" display="none">
		</g>
		<g id="Calque_151" display="none">
		</g>
	</g>
	<g id="lycées" display="none">
	</g>
	<g id="lycees-cercles_proportionnelles">
		<g id="NOMBRE" display="none">
		</g>
	</g>
	<g id="taux_1_">
	</g>
</g>
<g id="SLIDE_SANTE">
	<g id="texte_4_">
	</g>
</g>
<g id="SLIDE_ECO">
	<g>
		<rect x="0.031" y="51.833" fill="#F39200" width="120" height="119"/>
		<rect x="124.031" y="114.833" fill="#3BB49E" width="56" height="56"/>
		<g>
			<g>
				<path fill="#FFFFFF" d="M42.132,112.121c0.274-0.655,0.925-1.348,1.95-2.079c0.89-0.637,1.465-1.093,1.727-1.368
					c0.402-0.429,0.604-0.898,0.604-1.409c0-0.416-0.115-0.761-0.346-1.036s-0.56-0.414-0.989-0.414
					c-0.587,0-0.986,0.219-1.198,0.657c-0.122,0.253-0.194,0.655-0.217,1.206h-1.876c0.031-0.835,0.183-1.51,0.454-2.025
					c0.516-0.98,1.431-1.47,2.746-1.47c1.039,0,1.866,0.288,2.481,0.863c0.614,0.576,0.922,1.338,0.922,2.286
					c0,0.727-0.218,1.373-0.651,1.937c-0.285,0.375-0.754,0.792-1.405,1.253l-0.773,0.549c-0.483,0.343-0.815,0.591-0.993,0.745
					c-0.179,0.153-0.329,0.332-0.45,0.535h4.287v1.7h-6.726C41.695,113.347,41.847,112.704,42.132,112.121z"/>
				<path fill="#FFFFFF" d="M49.92,107.278v-1.313c0.607-0.027,1.033-0.068,1.276-0.122c0.388-0.086,0.703-0.257,0.946-0.515
					c0.166-0.176,0.292-0.411,0.378-0.705c0.05-0.176,0.074-0.307,0.074-0.393h1.612v9.82h-1.978v-6.773H49.92z"/>
				<path fill="#FFFFFF" d="M57.471,115.656c0.389-0.108,0.674-0.289,0.857-0.542c0.183-0.253,0.287-0.607,0.314-1.063h-1.172
					v-2.025h2.086v1.752c0,0.308-0.04,0.629-0.121,0.963c-0.082,0.334-0.233,0.623-0.454,0.867
					c-0.239,0.262-0.521,0.459-0.844,0.593c-0.322,0.133-0.545,0.2-0.667,0.2V115.656z"/>
				<path fill="#FFFFFF" d="M61.851,105.128c0.607-0.653,1.396-0.979,2.367-0.979c1.494,0,2.52,0.662,3.074,1.984
					c0.316,0.75,0.475,1.736,0.475,2.96c0,1.188-0.151,2.179-0.454,2.973c-0.578,1.513-1.639,2.269-3.183,2.269
					c-0.736,0-1.397-0.218-1.984-0.654c-0.588-0.436-0.924-1.071-1.01-1.906h1.924c0.045,0.289,0.167,0.523,0.365,0.704
					c0.199,0.181,0.463,0.271,0.793,0.271c0.637,0,1.083-0.352,1.341-1.057c0.14-0.388,0.228-0.955,0.264-1.7
					c-0.176,0.221-0.363,0.39-0.562,0.508c-0.361,0.217-0.807,0.325-1.335,0.325c-0.78,0-1.474-0.27-2.079-0.81
					c-0.604-0.54-0.907-1.317-0.907-2.333C60.939,106.633,61.243,105.781,61.851,105.128z M65.098,109.026
					c0.438-0.28,0.657-0.765,0.657-1.456c0-0.555-0.13-0.996-0.39-1.321s-0.615-0.488-1.066-0.488c-0.33,0-0.612,0.093-0.847,0.278
					c-0.37,0.289-0.556,0.779-0.556,1.47c0,0.583,0.119,1.02,0.355,1.311c0.237,0.291,0.602,0.437,1.094,0.437
					C64.612,109.256,64.863,109.18,65.098,109.026z"/>
				<path fill="#FFFFFF" d="M76.716,108.579c-0.489,0.492-1.085,0.738-1.784,0.738c-0.695,0-1.289-0.246-1.781-0.738
					s-0.738-1.086-0.738-1.781s0.246-1.289,0.738-1.781s1.086-0.738,1.781-0.738s1.289,0.246,1.781,0.738s0.738,1.086,0.738,1.781
					S77.206,108.087,76.716,108.579z M75.693,107.56c0.21-0.21,0.315-0.464,0.315-0.762c0-0.298-0.105-0.552-0.315-0.762
					s-0.464-0.315-0.762-0.315s-0.552,0.105-0.762,0.315s-0.315,0.464-0.315,0.762c0,0.298,0.105,0.552,0.315,0.762
					s0.464,0.315,0.762,0.315S75.483,107.77,75.693,107.56z M80.438,104.231h1.025l-5.47,10.078h-1.048L80.438,104.231z
					 M83.296,113.509c-0.492,0.492-1.086,0.738-1.781,0.738s-1.289-0.246-1.781-0.738c-0.492-0.492-0.738-1.085-0.738-1.781
					c0-0.7,0.246-1.294,0.738-1.784c0.492-0.49,1.086-0.735,1.781-0.735s1.289,0.246,1.781,0.738
					c0.492,0.492,0.738,1.086,0.738,1.781C84.034,112.424,83.788,113.018,83.296,113.509z M82.276,110.966
					c-0.21-0.21-0.464-0.315-0.762-0.315s-0.552,0.105-0.762,0.315s-0.315,0.464-0.315,0.762c0,0.298,0.105,0.552,0.315,0.762
					s0.464,0.315,0.762,0.315s0.552-0.105,0.762-0.315s0.315-0.464,0.315-0.762C82.592,111.43,82.486,111.176,82.276,110.966z"/>
			</g>
		</g>
		<g>
			<g>
				<path fill="#3BB49E" d="M131.933,139.621v-1.313c0.607-0.027,1.033-0.068,1.276-0.122c0.388-0.086,0.703-0.257,0.946-0.515
					c0.166-0.176,0.292-0.411,0.378-0.705c0.05-0.176,0.074-0.307,0.074-0.393h1.612v9.82h-1.978v-6.773H131.933z"/>
				<path fill="#3BB49E" d="M145.136,137.827c0.503,0.88,0.755,2.131,0.755,3.752s-0.252,2.87-0.755,3.745
					c-0.504,0.876-1.381,1.314-2.632,1.314c-1.25,0-2.127-0.438-2.631-1.314c-0.503-0.875-0.755-2.124-0.755-3.745
					s0.252-2.872,0.755-3.752c0.504-0.88,1.381-1.321,2.631-1.321C143.755,136.506,144.632,136.946,145.136,137.827z
					 M141.366,144.169c0.186,0.598,0.564,0.897,1.138,0.897c0.574,0,0.95-0.299,1.128-0.897c0.179-0.599,0.268-1.462,0.268-2.591
					c0-1.183-0.089-2.059-0.268-2.628c-0.178-0.569-0.554-0.853-1.128-0.853c-0.573,0-0.952,0.284-1.138,0.853
					c-0.185,0.569-0.277,1.445-0.277,2.628C141.089,142.708,141.182,143.571,141.366,144.169z"/>
				<path fill="#3BB49E" d="M147.197,147.999c0.389-0.108,0.674-0.289,0.857-0.542c0.183-0.253,0.287-0.607,0.314-1.063h-1.172
					v-2.025h2.086v1.752c0,0.308-0.04,0.629-0.121,0.963c-0.082,0.334-0.233,0.623-0.454,0.867
					c-0.239,0.262-0.521,0.459-0.844,0.593c-0.322,0.133-0.545,0.2-0.667,0.2V147.999z"/>
				<path fill="#3BB49E" d="M152.515,143.38c0,0.393,0.063,0.718,0.189,0.975c0.234,0.474,0.66,0.711,1.277,0.711
					c0.378,0,0.708-0.129,0.989-0.389c0.282-0.26,0.423-0.633,0.423-1.121c0-0.646-0.261-1.077-0.783-1.293
					c-0.297-0.122-0.766-0.183-1.404-0.183v-1.381c0.625-0.009,1.062-0.07,1.31-0.183c0.427-0.189,0.641-0.573,0.641-1.151
					c0-0.375-0.109-0.679-0.327-0.914c-0.219-0.235-0.526-0.352-0.923-0.352c-0.454,0-0.789,0.145-1.003,0.433
					c-0.214,0.289-0.316,0.675-0.307,1.158h-1.802c0.018-0.487,0.102-0.95,0.25-1.388c0.158-0.384,0.406-0.738,0.744-1.063
					c0.253-0.23,0.553-0.406,0.9-0.528c0.347-0.122,0.773-0.183,1.278-0.183c0.938,0,1.694,0.243,2.27,0.728
					s0.863,1.137,0.863,1.954c0,0.578-0.172,1.066-0.516,1.463c-0.216,0.249-0.442,0.418-0.677,0.508
					c0.176,0,0.429,0.151,0.759,0.454c0.492,0.456,0.738,1.079,0.738,1.869c0,0.831-0.288,1.561-0.863,2.191
					s-1.426,0.945-2.554,0.945c-1.39,0-2.354-0.454-2.896-1.361c-0.285-0.483-0.442-1.115-0.474-1.896H152.515z"/>
				<path fill="#FFFFFF" d="M166.442,140.922c-0.489,0.492-1.085,0.738-1.784,0.738c-0.695,0-1.289-0.246-1.781-0.738
					s-0.738-1.086-0.738-1.781s0.246-1.289,0.738-1.781s1.086-0.738,1.781-0.738s1.289,0.246,1.781,0.738s0.738,1.086,0.738,1.781
					S166.933,140.43,166.442,140.922z M165.42,139.902c0.21-0.21,0.315-0.464,0.315-0.762c0-0.298-0.105-0.552-0.315-0.762
					s-0.464-0.315-0.762-0.315s-0.552,0.105-0.762,0.315s-0.315,0.464-0.315,0.762c0,0.298,0.105,0.552,0.315,0.762
					s0.464,0.315,0.762,0.315S165.21,140.112,165.42,139.902z M170.164,136.574h1.025l-5.47,10.078h-1.048L170.164,136.574z
					 M173.022,145.852c-0.492,0.492-1.086,0.738-1.781,0.738s-1.289-0.246-1.781-0.738c-0.492-0.492-0.738-1.085-0.738-1.781
					c0-0.7,0.246-1.294,0.738-1.784c0.492-0.49,1.086-0.735,1.781-0.735s1.289,0.246,1.781,0.738
					c0.492,0.492,0.738,1.086,0.738,1.781C173.761,144.767,173.515,145.36,173.022,145.852z M172.003,143.309
					c-0.21-0.21-0.464-0.315-0.762-0.315s-0.552,0.105-0.762,0.315s-0.315,0.464-0.315,0.762c0,0.298,0.105,0.552,0.315,0.762
					s0.464,0.315,0.762,0.315s0.552-0.105,0.762-0.315s0.315-0.464,0.315-0.762C172.318,143.773,172.213,143.519,172.003,143.309z"
					/>
			</g>
		</g>
	</g>
</g>
<g id="SLIDE_SOURCES_1_">
</g>
<g id="NUMEROS_SLIDES" display="none">
</g>
<g id="SLIDE_VOTE">
	<g id="graphique_triangle">
	</g>
	<g>
		<g>
			<path fill="#16212C" d="M33.755,2.345c1.128,0.601,1.817,1.653,2.07,3.158h-1.544c-0.184-0.841-0.565-1.454-1.144-1.837
				S31.831,3.09,30.951,3.09c-1.043,0-1.922,0.399-2.636,1.199s-1.07,1.99-1.07,3.573c0,1.369,0.294,2.482,0.883,3.342
				s1.549,1.289,2.88,1.289c1.019,0,1.862-0.302,2.53-0.905c0.668-0.603,1.01-1.579,1.025-2.926h-3.604V7.368h5.054v6.159H35.01
				l-0.376-1.481c-0.519,0.58-0.979,0.982-1.38,1.207c-0.673,0.387-1.528,0.58-2.566,0.58c-1.341,0-2.495-0.441-3.461-1.324
				c-1.053-1.107-1.58-2.627-1.58-4.56c0-1.928,0.515-3.461,1.545-4.6c0.978-1.086,2.244-1.63,3.8-1.63
				C32.057,1.718,32.978,1.927,33.755,2.345z"/>
			<path fill="#16212C" d="M39.797,5.135v5.571c0,0.428,0.066,0.778,0.199,1.05c0.244,0.501,0.699,0.752,1.365,0.752
				c0.956,0,1.607-0.439,1.954-1.316c0.188-0.47,0.282-1.115,0.282-1.936V5.135h1.41v8.392h-1.332l0.016-1.238
				c-0.18,0.318-0.402,0.587-0.669,0.807c-0.528,0.439-1.169,0.658-1.922,0.658c-1.174,0-1.974-0.399-2.399-1.199
				c-0.23-0.428-0.346-1-0.346-1.716V5.135H39.797z"/>
			<path fill="#16212C" d="M52.558,5.135h1.559c-0.198,0.538-0.64,1.766-1.324,3.684c-0.512,1.442-0.939,2.618-1.284,3.528
				c-0.814,2.14-1.389,3.445-1.723,3.915s-0.908,0.705-1.722,0.705c-0.199,0-0.352-0.008-0.458-0.024
				c-0.107-0.016-0.239-0.044-0.396-0.086v-1.285c0.245,0.068,0.422,0.11,0.531,0.125s0.206,0.023,0.29,0.023
				c0.261,0,0.452-0.043,0.574-0.129c0.123-0.086,0.227-0.192,0.31-0.317c0.026-0.042,0.12-0.255,0.281-0.641
				c0.162-0.386,0.279-0.672,0.353-0.86l-3.103-8.638h1.598l2.249,6.835L52.558,5.135z"/>
			<path fill="#16212C" d="M59.833,8.448c0.323-0.042,0.54-0.177,0.65-0.407c0.062-0.126,0.094-0.307,0.094-0.542
				c0-0.482-0.171-0.833-0.513-1.05c-0.341-0.217-0.83-0.326-1.466-0.326c-0.735,0-1.257,0.199-1.564,0.598
				c-0.172,0.221-0.283,0.549-0.336,0.984h-1.316c0.026-1.037,0.361-1.759,1.006-2.165c0.645-0.406,1.392-0.609,2.242-0.609
				c0.986,0,1.787,0.188,2.402,0.564c0.61,0.376,0.916,0.961,0.916,1.755v4.834c0,0.146,0.03,0.264,0.09,0.353
				c0.061,0.089,0.187,0.133,0.38,0.133c0.062,0,0.134-0.004,0.212-0.012s0.162-0.02,0.251-0.035v1.042
				c-0.22,0.063-0.387,0.102-0.502,0.118s-0.271,0.023-0.47,0.023c-0.486,0-0.839-0.172-1.058-0.517
				c-0.115-0.183-0.196-0.441-0.243-0.775c-0.287,0.376-0.7,0.703-1.238,0.979c-0.538,0.277-1.131,0.416-1.778,0.416
				c-0.778,0-1.414-0.236-1.908-0.708c-0.493-0.472-0.74-1.063-0.74-1.772c0-0.777,0.243-1.38,0.729-1.808
				c0.486-0.428,1.123-0.691,1.912-0.791L59.833,8.448z M56.863,12.258c0.298,0.235,0.65,0.352,1.058,0.352
				c0.496,0,0.977-0.115,1.441-0.344c0.783-0.381,1.176-1.004,1.176-1.87V9.261c-0.173,0.11-0.394,0.202-0.665,0.275
				s-0.537,0.125-0.798,0.157l-0.853,0.11c-0.511,0.068-0.895,0.175-1.152,0.32c-0.436,0.245-0.654,0.636-0.654,1.173
				C56.416,11.703,56.565,12.023,56.863,12.258z"/>
			<path fill="#16212C" d="M64.26,5.135h1.34v1.191c0.397-0.491,0.817-0.844,1.262-1.058c0.443-0.214,0.938-0.321,1.48-0.321
				c1.191,0,1.996,0.415,2.414,1.246c0.229,0.455,0.345,1.105,0.345,1.951v5.383h-1.435V8.237c0-0.512-0.075-0.924-0.227-1.238
				c-0.251-0.522-0.706-0.784-1.363-0.784c-0.335,0-0.609,0.034-0.823,0.102c-0.387,0.115-0.726,0.345-1.019,0.689
				c-0.235,0.277-0.388,0.563-0.458,0.858c-0.071,0.295-0.106,0.717-0.106,1.266v4.396h-1.41V5.135z"/>
			<path fill="#16212C" d="M78.367,5.366c0.556,0.28,0.979,0.642,1.27,1.085c0.28,0.423,0.467,0.917,0.561,1.481
				c0.083,0.386,0.124,1.003,0.124,1.849h-6.104c0.026,0.854,0.226,1.539,0.599,2.055c0.373,0.516,0.951,0.774,1.733,0.774
				c0.731,0,1.314-0.244,1.75-0.732c0.243-0.283,0.416-0.611,0.518-0.984h1.387c-0.036,0.309-0.158,0.652-0.364,1.03
				c-0.206,0.379-0.437,0.688-0.69,0.929c-0.425,0.418-0.951,0.7-1.579,0.846c-0.337,0.083-0.718,0.125-1.143,0.125
				c-1.038,0-1.918-0.38-2.64-1.14s-1.082-1.824-1.082-3.193c0-1.348,0.363-2.442,1.09-3.283c0.727-0.841,1.677-1.261,2.851-1.261
				C77.238,4.947,77.812,5.086,78.367,5.366z M78.872,8.661c-0.057-0.611-0.189-1.1-0.396-1.465
				c-0.383-0.679-1.022-1.019-1.919-1.019c-0.642,0-1.181,0.234-1.616,0.701c-0.435,0.468-0.665,1.062-0.691,1.783H78.872z"/>
		</g>
		<rect x="0.255" y="0.214" fill="#F39200" width="15.349" height="15.353"/>
	</g>
	<g>
		<g>
			<path fill="#16212C" d="M27.683,22.876h7.984v1.411h-6.425v3.494h5.649v1.372h-5.649v5.234h-1.56V22.876z"/>
			<path fill="#16212C" d="M37.187,25.995h1.34v1.449c0.11-0.282,0.379-0.625,0.808-1.03c0.428-0.405,0.922-0.607,1.48-0.607
				c0.026,0,0.07,0.002,0.133,0.008c0.063,0.005,0.17,0.016,0.321,0.031v1.489c-0.083-0.016-0.16-0.026-0.23-0.031
				c-0.07-0.005-0.147-0.008-0.231-0.008c-0.71,0-1.256,0.229-1.638,0.686c-0.381,0.457-0.572,0.983-0.572,1.579v4.827h-1.41V25.995
				z"/>
			<path fill="#16212C" d="M46.989,29.308c0.323-0.042,0.54-0.177,0.65-0.407c0.062-0.126,0.094-0.307,0.094-0.542
				c0-0.482-0.171-0.833-0.513-1.05c-0.341-0.217-0.83-0.326-1.466-0.326c-0.735,0-1.257,0.199-1.564,0.598
				c-0.172,0.221-0.283,0.549-0.336,0.984h-1.316c0.026-1.037,0.361-1.759,1.006-2.165c0.645-0.406,1.392-0.609,2.242-0.609
				c0.986,0,1.787,0.188,2.402,0.564c0.61,0.376,0.916,0.961,0.916,1.755v4.834c0,0.146,0.03,0.264,0.09,0.353
				c0.061,0.089,0.187,0.133,0.38,0.133c0.062,0,0.134-0.004,0.212-0.012s0.162-0.02,0.251-0.035v1.042
				c-0.22,0.063-0.387,0.102-0.502,0.118s-0.271,0.023-0.47,0.023c-0.486,0-0.839-0.172-1.058-0.517
				c-0.115-0.183-0.196-0.441-0.243-0.775c-0.287,0.376-0.7,0.703-1.238,0.979c-0.538,0.277-1.131,0.416-1.778,0.416
				c-0.778,0-1.414-0.236-1.908-0.708c-0.493-0.472-0.74-1.063-0.74-1.772c0-0.777,0.243-1.38,0.729-1.808
				c0.486-0.428,1.123-0.691,1.912-0.791L46.989,29.308z M44.02,33.118c0.298,0.235,0.65,0.352,1.058,0.352
				c0.496,0,0.977-0.115,1.441-0.344c0.783-0.381,1.176-1.004,1.176-1.87v-1.135c-0.173,0.11-0.394,0.202-0.665,0.275
				s-0.537,0.125-0.798,0.157l-0.853,0.11c-0.511,0.068-0.895,0.175-1.152,0.32c-0.436,0.245-0.654,0.636-0.654,1.173
				C43.572,32.562,43.722,32.883,44.02,33.118z"/>
			<path fill="#16212C" d="M51.416,25.995h1.34v1.191c0.397-0.491,0.817-0.844,1.262-1.058c0.443-0.214,0.938-0.321,1.48-0.321
				c1.191,0,1.996,0.415,2.414,1.246c0.229,0.455,0.345,1.105,0.345,1.951v5.383h-1.435v-5.289c0-0.512-0.075-0.924-0.227-1.238
				c-0.251-0.522-0.706-0.784-1.363-0.784c-0.335,0-0.609,0.034-0.823,0.102c-0.387,0.115-0.726,0.345-1.019,0.689
				c-0.235,0.277-0.388,0.563-0.458,0.858c-0.071,0.295-0.106,0.717-0.106,1.266v4.396h-1.41V25.995z"/>
			<path fill="#16212C" d="M65.885,26.441c0.593,0.46,0.949,1.251,1.069,2.375h-1.371c-0.084-0.517-0.274-0.947-0.572-1.289
				s-0.775-0.513-1.434-0.513c-0.898,0-1.541,0.438-1.928,1.314c-0.251,0.569-0.376,1.271-0.376,2.105
				c0,0.84,0.178,1.547,0.532,2.121c0.355,0.574,0.914,0.861,1.677,0.861c0.585,0,1.049-0.178,1.392-0.535
				c0.342-0.356,0.578-0.844,0.709-1.463h1.371c-0.157,1.113-0.549,1.926-1.176,2.441s-1.429,0.771-2.405,0.771
				c-1.097,0-1.972-0.4-2.625-1.203c-0.652-0.802-0.979-1.803-0.979-3.005c0-1.473,0.358-2.62,1.074-3.439
				c0.715-0.82,1.627-1.23,2.734-1.23C64.522,25.751,65.292,25.981,65.885,26.441z"/>
			<path fill="#16212C" d="M73.548,26.226c0.556,0.28,0.979,0.642,1.27,1.085c0.28,0.423,0.467,0.917,0.561,1.481
				c0.083,0.386,0.124,1.003,0.124,1.849h-6.104c0.026,0.854,0.226,1.539,0.599,2.055c0.373,0.516,0.951,0.774,1.733,0.774
				c0.731,0,1.314-0.244,1.75-0.732c0.243-0.283,0.416-0.611,0.518-0.984h1.387c-0.036,0.309-0.158,0.652-0.364,1.03
				c-0.206,0.379-0.437,0.688-0.69,0.929c-0.425,0.418-0.951,0.7-1.579,0.846c-0.337,0.083-0.718,0.125-1.143,0.125
				c-1.038,0-1.918-0.38-2.64-1.14s-1.082-1.824-1.082-3.193c0-1.348,0.363-2.442,1.09-3.283c0.727-0.841,1.677-1.261,2.851-1.261
				C72.419,25.807,72.992,25.946,73.548,26.226z M74.053,29.521c-0.057-0.611-0.189-1.1-0.396-1.465
				c-0.383-0.679-1.022-1.019-1.919-1.019c-0.642,0-1.181,0.234-1.616,0.701c-0.435,0.468-0.665,1.062-0.691,1.783H74.053z"/>
			<path fill="#16212C" d="M81.747,25.995h1.395v1.191c0.335-0.413,0.638-0.713,0.909-0.901c0.465-0.319,0.992-0.478,1.583-0.478
				c0.668,0,1.206,0.165,1.614,0.494c0.229,0.188,0.438,0.465,0.626,0.831c0.313-0.449,0.682-0.782,1.105-0.999
				c0.423-0.217,0.898-0.325,1.426-0.325c1.128,0,1.896,0.407,2.304,1.222c0.22,0.439,0.329,1.029,0.329,1.771v5.586h-1.466v-5.83
				c0-0.559-0.14-0.943-0.419-1.152s-0.62-0.313-1.022-0.313c-0.554,0-1.03,0.186-1.43,0.557c-0.399,0.371-0.6,0.99-0.6,1.857v4.881
				h-1.434v-5.477c0-0.569-0.068-0.984-0.204-1.246c-0.214-0.392-0.613-0.588-1.198-0.588c-0.533,0-1.018,0.207-1.454,0.619
				c-0.436,0.413-0.654,1.16-0.654,2.241v4.451h-1.41V25.995z"/>
			<path fill="#16212C" d="M100.298,26.226c0.556,0.28,0.979,0.642,1.27,1.085c0.28,0.423,0.467,0.917,0.561,1.481
				c0.083,0.386,0.124,1.003,0.124,1.849h-6.104c0.026,0.854,0.226,1.539,0.599,2.055c0.373,0.516,0.951,0.774,1.733,0.774
				c0.731,0,1.314-0.244,1.75-0.732c0.243-0.283,0.416-0.611,0.518-0.984h1.387c-0.036,0.309-0.158,0.652-0.364,1.03
				c-0.206,0.379-0.437,0.688-0.69,0.929c-0.425,0.418-0.951,0.7-1.579,0.846c-0.337,0.083-0.718,0.125-1.143,0.125
				c-1.038,0-1.918-0.38-2.64-1.14s-1.082-1.824-1.082-3.193c0-1.348,0.363-2.442,1.09-3.283c0.727-0.841,1.677-1.261,2.851-1.261
				C99.169,25.807,99.742,25.946,100.298,26.226z M100.803,29.521c-0.057-0.611-0.189-1.1-0.396-1.465
				c-0.383-0.679-1.022-1.019-1.919-1.019c-0.642,0-1.181,0.234-1.616,0.701c-0.435,0.468-0.665,1.062-0.691,1.783H100.803z
				 M100.238,22.618l-2.092,2.264h-1.081l1.434-2.264H100.238z"/>
			<path fill="#16212C" d="M104.32,23.652h1.426v2.343h1.34v1.152h-1.34v5.477c0,0.293,0.1,0.489,0.298,0.588
				c0.109,0.058,0.293,0.086,0.549,0.086c0.067,0,0.141-0.001,0.219-0.005c0.079-0.003,0.17-0.012,0.274-0.026v1.121
				c-0.162,0.047-0.33,0.081-0.505,0.102c-0.176,0.021-0.364,0.031-0.568,0.031c-0.658,0-1.104-0.168-1.34-0.505
				s-0.353-0.774-0.353-1.312v-5.555h-1.136v-1.152h1.136V23.652z"/>
			<path fill="#16212C" d="M108.536,25.995h1.34v1.449c0.11-0.282,0.379-0.625,0.808-1.03c0.428-0.405,0.922-0.607,1.48-0.607
				c0.026,0,0.07,0.002,0.133,0.008c0.063,0.005,0.17,0.016,0.321,0.031v1.489c-0.083-0.016-0.16-0.026-0.23-0.031
				c-0.07-0.005-0.147-0.008-0.231-0.008c-0.71,0-1.256,0.229-1.638,0.686c-0.381,0.457-0.572,0.983-0.572,1.579v4.827h-1.41V25.995
				z"/>
			<path fill="#16212C" d="M119.921,26.832c0.742,0.72,1.113,1.78,1.113,3.178c0,1.352-0.327,2.469-0.98,3.351
				c-0.654,0.882-1.668,1.323-3.042,1.323c-1.146,0-2.057-0.39-2.731-1.17c-0.674-0.78-1.012-1.828-1.012-3.143
				c0-1.409,0.355-2.531,1.066-3.366c0.71-0.835,1.665-1.253,2.863-1.253C118.271,25.751,119.18,26.112,119.921,26.832z
				 M119.046,32.409c0.343-0.707,0.515-1.494,0.515-2.359c0-0.783-0.124-1.419-0.372-1.91c-0.393-0.772-1.068-1.158-2.029-1.158
				c-0.853,0-1.473,0.329-1.859,0.986c-0.388,0.658-0.581,1.451-0.581,2.379c0,0.892,0.193,1.635,0.581,2.23
				c0.387,0.595,1.002,0.893,1.844,0.893C118.068,33.47,118.702,33.116,119.046,32.409z"/>
			<path fill="#16212C" d="M122.647,26.034h1.379v1.113c0.282-0.381,0.592-0.677,0.927-0.886c0.477-0.313,1.037-0.47,1.682-0.47
				c0.953,0,1.762,0.364,2.427,1.093s0.998,1.77,0.998,3.123c0,1.828-0.48,3.134-1.439,3.917c-0.608,0.496-1.316,0.745-2.124,0.745
				c-0.635,0-1.167-0.139-1.597-0.416c-0.252-0.157-0.532-0.426-0.842-0.807v4.286h-1.41V26.034z M127.953,32.611
				c0.438-0.551,0.657-1.375,0.657-2.472c0-0.669-0.098-1.243-0.291-1.724c-0.367-0.924-1.038-1.387-2.013-1.387
				c-0.98,0-1.651,0.488-2.013,1.465c-0.194,0.522-0.291,1.186-0.291,1.99c0,0.647,0.097,1.199,0.291,1.653
				c0.366,0.867,1.037,1.3,2.013,1.3C126.967,33.438,127.516,33.163,127.953,32.611z"/>
			<path fill="#16212C" d="M137.77,26.832c0.742,0.72,1.113,1.78,1.113,3.178c0,1.352-0.327,2.469-0.98,3.351
				c-0.654,0.882-1.668,1.323-3.042,1.323c-1.146,0-2.057-0.39-2.731-1.17c-0.674-0.78-1.012-1.828-1.012-3.143
				c0-1.409,0.355-2.531,1.066-3.366c0.71-0.835,1.665-1.253,2.863-1.253C136.12,25.751,137.028,26.112,137.77,26.832z
				 M136.895,32.409c0.343-0.707,0.515-1.494,0.515-2.359c0-0.783-0.124-1.419-0.372-1.91c-0.393-0.772-1.068-1.158-2.029-1.158
				c-0.853,0-1.473,0.329-1.859,0.986c-0.388,0.658-0.581,1.451-0.581,2.379c0,0.892,0.193,1.635,0.581,2.23
				c0.387,0.595,1.002,0.893,1.844,0.893C135.917,33.47,136.551,33.116,136.895,32.409z"/>
			<path fill="#16212C" d="M140.653,22.876h1.41v11.51h-1.41V22.876z"/>
			<path fill="#16212C" d="M144.18,22.876h1.434v1.599h-1.434V22.876z M144.18,26.034h1.434v8.353h-1.434V26.034z"/>
			<path fill="#16212C" d="M148.026,23.652h1.426v2.343h1.34v1.152h-1.34v5.477c0,0.293,0.1,0.489,0.298,0.588
				c0.109,0.058,0.293,0.086,0.549,0.086c0.067,0,0.141-0.001,0.219-0.005c0.079-0.003,0.17-0.012,0.274-0.026v1.121
				c-0.162,0.047-0.33,0.081-0.505,0.102c-0.176,0.021-0.364,0.031-0.568,0.031c-0.658,0-1.104-0.168-1.34-0.505
				s-0.353-0.774-0.353-1.312v-5.555h-1.136v-1.152h1.136V23.652z"/>
			<path fill="#16212C" d="M156.7,29.308c0.323-0.042,0.54-0.177,0.65-0.407c0.062-0.126,0.094-0.307,0.094-0.542
				c0-0.482-0.171-0.833-0.513-1.05c-0.341-0.217-0.83-0.326-1.466-0.326c-0.735,0-1.257,0.199-1.564,0.598
				c-0.172,0.221-0.283,0.549-0.336,0.984h-1.316c0.026-1.037,0.361-1.759,1.006-2.165c0.645-0.406,1.392-0.609,2.242-0.609
				c0.986,0,1.787,0.188,2.402,0.564c0.61,0.376,0.916,0.961,0.916,1.755v4.834c0,0.146,0.03,0.264,0.09,0.353
				c0.061,0.089,0.187,0.133,0.38,0.133c0.062,0,0.134-0.004,0.212-0.012s0.162-0.02,0.251-0.035v1.042
				c-0.22,0.063-0.387,0.102-0.502,0.118s-0.271,0.023-0.47,0.023c-0.486,0-0.839-0.172-1.058-0.517
				c-0.115-0.183-0.196-0.441-0.243-0.775c-0.287,0.376-0.7,0.703-1.238,0.979c-0.538,0.277-1.131,0.416-1.778,0.416
				c-0.778,0-1.414-0.236-1.908-0.708c-0.493-0.472-0.74-1.063-0.74-1.772c0-0.777,0.243-1.38,0.729-1.808
				c0.486-0.428,1.123-0.691,1.912-0.791L156.7,29.308z M153.73,33.118c0.298,0.235,0.65,0.352,1.058,0.352
				c0.496,0,0.977-0.115,1.441-0.344c0.783-0.381,1.176-1.004,1.176-1.87v-1.135c-0.173,0.11-0.394,0.202-0.665,0.275
				s-0.537,0.125-0.798,0.157l-0.853,0.11c-0.511,0.068-0.895,0.175-1.152,0.32c-0.436,0.245-0.654,0.636-0.654,1.173
				C153.283,32.562,153.433,32.883,153.73,33.118z"/>
			<path fill="#16212C" d="M161.127,22.876h1.434v1.599h-1.434V22.876z M161.127,26.034h1.434v8.353h-1.434V26.034z"/>
			<path fill="#16212C" d="M164.692,25.995h1.34v1.191c0.397-0.491,0.817-0.844,1.262-1.058c0.443-0.214,0.938-0.321,1.48-0.321
				c1.191,0,1.996,0.415,2.414,1.246c0.229,0.455,0.345,1.105,0.345,1.951v5.383h-1.435v-5.289c0-0.512-0.075-0.924-0.227-1.238
				c-0.251-0.522-0.706-0.784-1.363-0.784c-0.335,0-0.609,0.034-0.823,0.102c-0.387,0.115-0.726,0.345-1.019,0.689
				c-0.235,0.277-0.388,0.563-0.458,0.858c-0.071,0.295-0.106,0.717-0.106,1.266v4.396h-1.41V25.995z"/>
			<path fill="#16212C" d="M178.801,26.226c0.556,0.28,0.979,0.642,1.27,1.085c0.28,0.423,0.467,0.917,0.561,1.481
				c0.083,0.386,0.124,1.003,0.124,1.849h-6.104c0.026,0.854,0.226,1.539,0.599,2.055c0.373,0.516,0.951,0.774,1.733,0.774
				c0.731,0,1.314-0.244,1.75-0.732c0.243-0.283,0.416-0.611,0.518-0.984h1.387c-0.036,0.309-0.158,0.652-0.364,1.03
				c-0.206,0.379-0.437,0.688-0.69,0.929c-0.425,0.418-0.951,0.7-1.579,0.846c-0.337,0.083-0.718,0.125-1.143,0.125
				c-1.038,0-1.918-0.38-2.64-1.14s-1.082-1.824-1.082-3.193c0-1.348,0.363-2.442,1.09-3.283c0.727-0.841,1.677-1.261,2.851-1.261
				C177.672,25.807,178.245,25.946,178.801,26.226z M179.306,29.521c-0.057-0.611-0.189-1.1-0.396-1.465
				c-0.383-0.679-1.022-1.019-1.919-1.019c-0.642,0-1.181,0.234-1.616,0.701c-0.435,0.468-0.665,1.062-0.691,1.783H179.306z"/>
		</g>
		<rect x="0.255" y="21.074" fill="#3CB59F" width="15.349" height="15.353"/>
	</g>
</g>
<g id="texte_5_">
</g>
<g id="NATIONALITÉ">
</g>
<g id="POPULATION">
</g>
<g id="ASILE">
</g>
<g id="Mode_Isolation">
</g>
<g
   transform="translate(0.27989336,22.921211)"
><path fill="#FFFFFF"
     d="m 132.88477,122.52539 h 1.58593 v 1.98438 h -1.58593 z m 1.53906,-1.14844 h -1.49219 v -1.20312 q 0,-0.78906 0.21875,-1.29688 0.21875,-0.50781 0.92188,-1.17968 l 0.70312,-0.69532 q 0.44531,-0.41406 0.64063,-0.78125 0.20312,-0.36718 0.20312,-0.75 0,-0.69531 -0.51562,-1.125 -0.50782,-0.42968 -1.35157,-0.42968 -0.61718,0 -1.32031,0.27343 -0.69531,0.27344 -1.45312,0.79688 v -1.46875 q 0.73437,-0.44531 1.48437,-0.66406 0.75781,-0.21875 1.5625,-0.21875 1.4375,0 2.30469,0.75781 0.875,0.75781 0.875,2 0,0.59375 -0.28125,1.13281 -0.28125,0.53125 -0.98438,1.20313 l -0.6875,0.67187 q -0.36718,0.36719 -0.52343,0.57813 -0.14844,0.20312 -0.21094,0.39843 -0.0469,0.16407 -0.0703,0.39844 -0.0234,0.23438 -0.0234,0.64063 z"
     id="path260" /><path fill="#FFFFFF"
     d="m 141.37695,122.52539 h 1.58594 v 1.98438 h -1.58594 z m 1.53907,-1.14844 h -1.49219 v -1.20312 q 0,-0.78906 0.21875,-1.29688 0.21875,-0.50781 0.92187,-1.17968 l 0.70313,-0.69532 q 0.44531,-0.41406 0.64062,-0.78125 0.20313,-0.36718 0.20313,-0.75 0,-0.69531 -0.51563,-1.125 -0.50781,-0.42968 -1.35156,-0.42968 -0.61719,0 -1.32031,0.27343 -0.69531,0.27344 -1.45313,0.79688 v -1.46875 q 0.73438,-0.44531 1.48438,-0.66406 0.75781,-0.21875 1.5625,-0.21875 1.4375,0 2.30469,0.75781 0.875,0.75781 0.875,2 0,0.59375 -0.28125,1.13281 -0.28125,0.53125 -0.98438,1.20313 l -0.6875,0.67187 q -0.36719,0.36719 -0.52344,0.57813 -0.14843,0.20312 -0.21093,0.39843 -0.0469,0.16407 -0.0703,0.39844 -0.0234,0.23438 -0.0234,0.64063 z"
     id="path262" /><path fill="#FFFFFF"
     d="m 148.68945,122.52539 h 1.64844 v 1.34375 l -1.28125,2.5 h -1.00781 l 0.64062,-2.5 z"
     id="path264" /><path fill="#FFFFFF"
     d="m 154.95508,122.52539 h 1.58594 v 1.98438 h -1.58594 z m 1.53906,-1.14844 h -1.49219 v -1.20312 q 0,-0.78906 0.21875,-1.29688 0.21875,-0.50781 0.92188,-1.17968 l 0.70312,-0.69532 q 0.44532,-0.41406 0.64063,-0.78125 0.20312,-0.36718 0.20312,-0.75 0,-0.69531 -0.51562,-1.125 -0.50781,-0.42968 -1.35156,-0.42968 -0.61719,0 -1.32032,0.27343 -0.69531,0.27344 -1.45312,0.79688 v -1.46875 q 0.73437,-0.44531 1.48437,-0.66406 0.75782,-0.21875 1.5625,-0.21875 1.4375,0 2.30469,0.75781 0.875,0.75781 0.875,2 0,0.59375 -0.28125,1.13281 -0.28125,0.53125 -0.98437,1.20313 l -0.6875,0.67187 q -0.36719,0.36719 -0.52344,0.57813 -0.14844,0.20312 -0.21094,0.39843 -0.0469,0.16407 -0.0703,0.39844 -0.0234,0.23438 -0.0234,0.64063 z"
     id="path266" /></g>
</svg>
