% Nobel     Ikea % Pays
      6        1 % Irlande
      3        1 % Egypte
      1        1 % Islande
      1        2 % Coree du Sud
      2        3 % Hongrie
      9        4 % Israel
      2        4 % Republique tcheque
     13        5 % Danemark
      2        5 % Portugal
      2        5 % Grece
      1        5 % Turquie
      1        5 % Taïwan
     12        7 % Autriche
     10        7 % Norvege
     10        8 % Belgique
     23        9 % Suisse
     17        9 % Japon
      8       10 % Australie
      6       10 % Pologne
     14       13 % Pays-Bas
     14       13 % Canada
     10       14 % Russie
    105       20 % Royaume-Uni
     30       20 % Suede
      7       20 % Espagne
     15       21 % Italie
    339       45 % Etats-Unis
     81       53 % Allemagne
     61       33 % France

%%%%%%%%%%%%%%%%%%%%%%%%%%%%%%%%%%%%%%%%%%%%%%%%%%%%%%%%%%%%%%%%%%%%%%%%%%%%%%%%
% Sources
% Prix Nobel : https://www.la-croix.com/Actualite/Monde/Les-prix-Nobel-quels-pays-sont-les-plus-recompenses-2014-10-13-1220588
% Ikéa : https://en.wikipedia.org/wiki/List_of_countries_with_IKEA_stores
%
% Pour améliorer l'illusion, certaines données ont été honteusement supprimées.
