annee france allemagne espagne italie
1975 100 100 100 100
1976 109.311756281065 106.734186199422 104.251544020189 112.406298783514
1977 111.305563369592 109.514922254386 109.938201164191 113.623032907804
1978 113.808879128116 111.442786416179 112.810065551932 115.784908717927
1979 118.712138153678 117.054564716502 113.454556676869 123.508968464175
1980 117.481224246997 117.044534821844 114.002909453853 130.340525811722
1981 116.250192365117 114.906234415355 113.050974532479 128.296267049544
1982 115.31458349118 111.171735478245 111.652617177479 124.007325987001
1983 115.393377816101 111.914609377394 114.686087012737 120.873616503008
1984 117.382741172112 115.297748567257 115.883918466256 124.804026343298
1985 117.671177426573 120.82923547128 117.856970476327 126.58333646054
1986 120.658610970488 123.047844687081 121.607697035347 131.722099024063
1987 122.766736027345 123.519685061308 127.131169096721 135.692342421994
1988 127.14078452459 127.966950800581 131.231419176361 144.270209945335
1989 131.548639470674 134.27143611375 137.901150530158 149.501854202462
1990 145.032025023326 141.21842672744 137.404048136747 149.196531735357
1991 143.273276965657 145.274160901799 136.536141027482 147.778118322896
1992 139.905609353703 141.899919760843 132.285898743634 146.225368865607
1993 133.622250227496 131.284025024587 126.118871637388 142.630507102507
1994 136.919001636185 135.125474678695 135.907182981128 151.336271301572
1995 139.952537266399 136.033928904763 142.630972958695 160.311087235637
1996 137.812598230739 136.319432642292 140.856062771189 157.633273402909
1997 141.901356478844 140.537247128246 150.801182152112 163.722492687082
1998 145.356456821995 145.689461227492 158.94098336966 165.752135103513
1999 146.33630639575 147.389563198088 163.257482570628 165.336423451744
2000 149.954343597787 155.695395581831 170.42639324548 172.367163189237
2001 149.582852802868 156.26462692971 168.02754181572 169.823831418777
2002 146.152789418726 154.527713852678 168.219584491611 167.29276511328
2003 143.811899293224 154.994765648725 170.53652891566 166.326859747475
2004 146.632424146535 159.723878393099 173.12771554633 165.984448850602
2005 146.115692772656 165.854198764651 174.500096679519 164.957362177424
2006 147.333721165878 176.01298453446 181.347668619466 171.058846926559
2007 149.014867758977 188.200699585152 185.43936234226 174.189022788504
2008 144.642051447149 188.594756036743 171.511953596171 167.720742230011
2009 125.617318339822 155.943513583542 144.911395633947 136.578025806246
2010 131.083555017472 174.130115594536 146.262510198154 146.017440031002
2011 134.232837426767 189.3245353512 144.118418808657 147.93713131509
2012 131.276903261123 188.186072655443 134.66389313944 138.754474156884
2013 130.263181696751 188.755304003321 132.533945334679 134.52385245989
2014 129.119477679223 192.38974777601 134.172699751442 133.741315795276

